[
    {
    "title": "Mielensäpahoittaja",
    "author": "5f93e061fb2782b8d5d3f3b4",
    "summary": "req.body.summary",
    "isbn": "978-951-036-626-4",
    "genre": ["5f93e14afb2782b8d5d3f3bc"]
    },
    {
    "title": "Mielensäpahoittaja ja ruskeakastike.",
    "author": "5f93e061fb2782b8d5d3f3b4",
    "summary": "req.body.summary",
    "isbn": "978-951-039-079-5",
    "genre": ["5f93e14afb2782b8d5d3f3bc"]
    },
    {
    "title": "Tuntematon Kimi Räikkönen",
    "author": "5f93e061fb2782b8d5d3f3b5",
    "summary": "req.body.summary",
    "isbn": "978-952-234-538-7",
    "genre": ["5f93e14afb2782b8d5d3f3bd", "5f93e14afb2782b8d5d3f3be"]
    },
    {
    "title": "Henkireikä.",
    "author": "5f93e061fb2782b8d5d3f3b5",
    "summary": "req.body.summary",
    "isbn": "978-952-234-316-1",
    "genre": ["5f93e14afb2782b8d5d3f3bc"]
    }
]
    